Offer_Code|Offer_Date|Offer_Exp_Date|Offer|Offer_Text|Bonus_Item_1|Bonus_Amount_1|Bonus_Item_2|Bonus_Amount_2|Bonus_Item_3|Bonus_Amount_3|Bonus_Item_4|Bonus_Amount_4|Coupon_Amt_1|Coupon_Min_Order_1|Coupon_Amt_2|Coupon_Min_Order_2|Coupon_Amt_3|Coupon_Min_Order_3|Coupon_Amt_4|Coupon_Min_Order_4|One_Use|Affiliate|Free_Ship_Upgrade|Coupon_Type|Affiliate_Prog|Custnbr_Required|Last_Update|Catalog_Type|House_Credit|OverWeight|Mailed|Media_Code|List_Type|Media_Type
S03785|2013-05-19 00:00:00|2013-07-15 00:00:00| SH. EM. Save Up To 60% On Selected Items/ 7/7/2013|20^Independence Day Sale^60^7/7/2013^84384,81838,72540,84385,80178,80174,80175,80177,80176,86187,70341,74512,75240,76496,86578,77162,86579,75616,03699,84379,75238,77216,75248,72539,81852,84365,84381,75216,80242,72408,03263,81922,30050,87061,87064,77173,82074,72516,68043,76514,02503,75314,86580,00698,72361,84399,73056,86135,71008,86581,00699,81894,87060,72512,77168,70166,71048,81900,64986,09654,87490,64823,21493,81904,03292,83333,64987,07799,57588,81907,87491,72409,77212,76382,83335,81849,03248,83084,65019,81106,75144,74508,84390,86569,75138,55939,65467,04661,86143,81910,86141,86142,54296,70270,03749,65152,86139,53090,76459,74372,07575,81861,75600,72369,66750,82586,72500,77118,73058^independencesale||0||0||0||0|0|0|0|0|0|0|0|0|False|||||False|2013-06-29 02:08:00|4|Y|.00|1|SH|XXX|1
S03787|2013-05-19 00:00:00|2013-07-15 00:00:00| SH. EM. Save Up To 60% On Selected Items/ 7/7/2013|20^Independence Day Sale^60^7/7/2013^84384,81838,72540,84385,80178,80174,80175,80177,80176,86187,70341,74512,75240,76496,86578,77162,86579,75616,03699,84379,75238,77216,75248,72539,81852,84365,84381,75216,80242,72408,03263,81922,30050,87061,87064,77173,82074,72516,68043,76514,02503,75314,86580,00698,72361,84399,73056,86135,71008,86581,00699,81894,87060,72512,77168,70166,71048,81900,64986,09654,87490,64823,21493,81904,03292,83333,64987,07799,57588,81907,87491,72409,77212,76382,83335,81849,03248,83084,65019,81106,75144,74508,84390,86569,75138,55939,65467,04661,86143,81910,86141,86142,54296,70270,03749,65152,86139,53090,76459,74372,07575,81861,75600,72369,66750,82586,72500,77118,73058^independencesale||0||0||0||0|0|0|0|0|0|0|0|0|False|||||False|2013-06-29 02:08:00|4|Y|.00|1|SH|XXX|1
S03805|2013-06-19 00:00:00|2013-08-10 00:00:00| SH. EM. BULK. Picotee Daylilies Solo. Save 63% on Picotee Daylilies/ Ex|19^http://www.springhillnursery.com/media/catalog/product/8/6/86155_1.jpg^Daylily Sale^Picotee Daylily Collection^63^08/02/2013^86155^http://www.springhillnursery.com/picotee-daylily-collection.html||0||0||0||0|0|0|0|0|0|0|0|0|False|||||False|2013-06-29 02:08:00|4|Y|.00|1|SH|XXX|1
S03806|2013-06-19 00:00:00|2013-08-08 00:00:00| SH. EM. BULK. Lazy Days of Summer Sale. Save Up To 60% On selected item|20^Super Sale^60^7/31/2013^84384,81838,72540,84385,80178,80174,80175,80177,80176,86187,70341,74512,75240,76496,86578,77162,86579,75616,03699,84379,75238,77216,75248,72539,81852,84365,84381,75216,80242,72408,03263,81922,30050,87061,87064,77173,82074,72516,68043,76514,02503,75314,86580,00698,72361,84399,73056,86135,71008,86581,00699,81894,87060,72512,77168,70166,71048,81900,64986,09654,87490,64823,21493,81904,03292,83333,64987,07799,57588,81907,87491,72409,77212,76382,83335,81849,03248,83084,65019,81106,75144,74508,84390,86569,75138,55939,65467,04661,86143,81910,86141,86142,54296,70270,03749,65152,86139,53090,76459,74372,07575,81861,75600,72369,66750,82586,72500,77118,73058^supersale.html||0||0||0||0|0|0|0|0|0|0|0|0|False|||||False|2013-06-29 02:08:00|4|Y|.00|1|SH|XXX|1
S03807|2013-06-19 00:00:00|2013-08-10 00:00:00| SH. EM. BULK. Picotee Daylilies Solo. Save 63% on Picotee Daylilies/ Ex|19^http://www.springhillnursery.com/media/catalog/product/8/6/86155_1.jpg^Daylily Sale^Picotee Daylily Collection^63^08/02/2013^86155^http://www.springhillnursery.com/picotee-daylily-collection.html||0||0||0||0|0|0|0|0|0|0|0|0|False|||||False|2013-06-29 02:08:00|4|Y|.00|1|SH|XXX|1
S03808|2013-06-19 00:00:00|2013-09-09 00:00:00| SH. EM. BULK. Value added/content rich email. No Offer/ Exp 9/1/2013|17^9/1/2013^best-sellers-first.html||0||0||0||0|0|0|0|0|0|0|0|0|False|||||False|2013-06-29 02:08:00|4|Y|.00|1|SH|XXX|1
S03809|2013-06-19 00:00:00|2013-08-24 00:00:00| SH. EM. BULK. New Customers Bounceback. Save $25/ $50, $50/$100, $100/$|15^8/10/2013^best-sellers-first.html||0||0||0||0|25|50|50|100|100|200|0|0|False|||S||False|2013-06-29 02:08:00|4|Y|.00|1|SH|XXX|1
S03850|2013-05-26 00:00:00|2013-08-08 00:00:00| IL. EM. Get Free S&H w/$25 Or More/ Exp 7/30/2013|<Center><Font Color=Red Size=2><B>Special Offer:</B></Font><BR><Font Size=2 Color=Green><a href= http://www.irislovers.com/category/65> Get Free Shipping When You<BR>Buy $25 Or More!</B></Font></a><font color=black size=-3><br>Offer Expires July 30th, 2013.</font ></Center>||0||0||0||0|0|0|0|0|0|0|0|0|False|||||False|2013-06-29 02:08:00|4|Y|.00|1|SH|XXX|1
S03851|2013-05-26 00:00:00|2013-09-08 00:00:00| IL. EM. Save $25/$50/ Exp 8/30/2013|<Center><Font Color=Red Size=2><B>Special Offer:</B></Font><BR><Font Size=2 Color=Green><a href= http://www.irislovers.com/category/66> Save $25 When You<BR>Buy $50 Or More!</B></Font></a><font color=black size=-3><br>Offer Expires August 30th, 2013.</font ></Center>||0||0||0||0|25|50|0|0|0|0|0|0|False|||S||False|2013-06-29 02:08:00|4|Y|.00|1|SH|XXX|1
S03859|2013-06-27 00:00:00|2013-08-27 00:00:00| SH.SL.MC. Solo - Reblooming Daylily Collections.Save up to 59%.Exp 08/1|19^http://www.springhillnursery.com/media/catalog/product/cache/1/image/320x/9df78eab33525d08d6e5fb8d27136e95/r/e/reblooming-a.jpg^Reblooming Daylily^Reblooming Daylily Collection A^59^12/30/2013^03246^reblooming-daylily-collection-a.html||0||0||0||0|0|0|0|0|0|0|0|0|False|||||False|2013-06-29 02:08:00|4|Y|.00|241200|SH|JUL|1
