Offer_Code|Order_Low|Order_High|Shipping|Last_Update|Catalog_Type|Type|Percent
S03859|0.01|50|9.95|2013-06-29 02:08:00|4|F|.0000
S03859|50.01|100|12.95|2013-06-29 02:08:00|4|F|.0000
S03859|100.01|999999999|14.95|2013-06-29 02:08:00|4|F|.0000
