Offer_Code|Offer_Date|Offer_Exp_Date|Offer|Offer_Text|Bonus_Item_1|Bonus_Amount_1|Bonus_Item_2|Bonus_Amount_2|Bonus_Item_3|Bonus_Amount_3|Bonus_Item_4|Bonus_Amount_4|Coupon_Amt_1|Coupon_Min_Order_1|Coupon_Amt_2|Coupon_Min_Order_2|Coupon_Amt_3|Coupon_Min_Order_3|Coupon_Amt_4|Coupon_Min_Order_4|One_Use|Affiliate|Free_Ship_Upgrade|Coupon_Type|Affiliate_Prog|Custnbr_Required|Last_Update|Catalog_Type|House_Credit|OverWeight|Mailed|Media_Code|List_Type|Media_Type
S03771|2013-05-19 00:00:00|2013-07-05 00:00:00| SH. EM. Save 60% on Josee Lilac (Pay Now)/Exp 6/27/2013|19^http://www.springhillnursery.com/media/catalog/product/j/o/josee-reblooming-lilac-collection-72429.jpg^Floral Miracle^Josee Reblooming Lilac Collection^60^6/27/2013^72429^http://www.springhillnursery.com/perennial-clearance-sale/josee-reblooming-lilac-collection-72429.html||0||0||0||0|0|0|0|0|0|0|0|0|False|||||False|2013-06-20 02:08:00|4|Y|.00|1|SH|XXX|1
S03772|2013-05-19 00:00:00|2013-07-05 00:00:00| SH. EM. Save 60% on Josee Lilac (Send No Money)/Exp 6/27/2013|19^http://www.springhillnursery.com/media/catalog/product/j/o/josee-reblooming-lilac-collection-72429.jpg^Floral Miracle^Josee Reblooming Lilac Collection^60^6/27/2013^72429^http://www.springhillnursery.com/perennial-clearance-sale/josee-reblooming-lilac-collection-72429.html||0||0||0||0|0|0|0|0|0|0|0|0|False|||||False|2013-06-20 02:08:00|4|Y|.00|1|SH|XXX|1
S03774|2013-05-19 00:00:00|2013-07-05 00:00:00| SH. EM. Save 60% on Josee Lilac (Send No Money)/Exp 6/27/2013|19^http://www.springhillnursery.com/media/catalog/product/j/o/josee-reblooming-lilac-collection-72429.jpg^Floral Miracle^Josee Reblooming Lilac Collection^60^6/27/2013^72429^http://www.springhillnursery.com/perennial-clearance-sale/josee-reblooming-lilac-collection-72429.html||0||0||0||0|0|0|0|0|0|0|0|0|False|||||False|2013-06-20 02:08:00|4|Y|.00|1|SH|XXX|1
S03779|2013-05-19 00:00:00|2013-07-05 00:00:00| SH. EM. Save 60% on Josee Lilac (Send No Money)/Exp 6/27/2013|19^http://www.springhillnursery.com/media/catalog/product/j/o/josee-reblooming-lilac-collection-72429.jpg^Floral Miracle^Josee Reblooming Lilac Collection^60^6/27/2013^72429^http://www.springhillnursery.com/perennial-clearance-sale/josee-reblooming-lilac-collection-72429.html||0||0||0||0|0|0|0|0|0|0|0|0|False|||||False|2013-06-20 02:08:00|4|Y|.00|1|SH|XXX|1
