
					- - - - - - - -
					ERROR
                                        SUBJECT: Something went wrong while updating product description information.
					Message: SQLSTATE[23000]: Integrity constraint violation: 1452 Cannot add or update a child row: a foreign key constraint fails (`springhill`.`cataloginventory_stock_item`, CONSTRAINT `FK_CATINV_STOCK_ITEM_PRD_ID_CAT_PRD_ENTT_ENTT_ID` FOREIGN KEY (`product_id`) REFERENCES `catalog_product_entity` (`entity_id`) ON DELETE)
					Trace: #0 /var/www/html/springhill/lib/Varien/Db/Statement/Pdo/Mysql.php(110): Zend_Db_Statement_Pdo->_execute(Array)
#1 /var/www/html/springhill/lib/Zend/Db/Statement.php(300): Varien_Db_Statement_Pdo_Mysql->_execute(Array)
#2 /var/www/html/springhill/lib/Zend/Db/Adapter/Abstract.php(479): Zend_Db_Statement->execute(Array)
#3 /var/www/html/springhill/lib/Zend/Db/Adapter/Pdo/Abstract.php(238): Zend_Db_Adapter_Abstract->query('INSERT INTO `ca...', Array)
#4 /var/www/html/springhill/lib/Varien/Db/Adapter/Pdo/Mysql.php(419): Zend_Db_Adapter_Pdo_Abstract->query('INSERT INTO `ca...', Array)
#5 /var/www/html/springhill/lib/Zend/Db/Adapter/Abstract.php(574): Varien_Db_Adapter_Pdo_Mysql->query('INSERT INTO `ca...', Array)
#6 /var/www/html/springhill/app/code/core/Mage/Core/Model/Resource/Db/Abstract.php(453): Zend_Db_Adapter_Abstract->insert('cataloginventor...', Array)
#7 /var/www/html/springhill/app/code/core/Mage/Core/Model/Abstract.php(318): Mage_Core_Model_Resource_Db_Abstract->save(Object(Mage_CatalogInventory_Model_Stock_Item))
#8 /var/www/html/springhill/dailyfeed/ProductDescriptionCron.php(737): Mage_Core_Model_Abstract->save()
#9 /var/www/html/springhill/dailyfeed/ProductDescriptionCron.php(763): productDescriptionCron(400)
#10 /var/www/html/springhill/dailyfeed/ProductDescriptionCron.php(763): productDescriptionCron(300)
#11 /var/www/html/springhill/dailyfeed/ProductDescriptionCron.php(763): productDescriptionCron(200)
#12 /var/www/html/springhill/dailyfeed/ProductDescriptionCron.php(763): productDescriptionCron(100)
#13 /var/www/html/springhill/dailyfeed/dailybatch.php(70): productDescriptionCron(0)
#14 {main}
					ProductId: 3096
					Time: 2013 03 05 10:52:39
					