
					- - - - - - - -
					ERROR
                                        SUBJECT: Something went wrong while updating stock data SKU: 11601 and Product Id:7344
					Message: SQLSTATE[23000]: Integrity constraint violation: 1452 Cannot add or update a child row: a foreign key constraint fails (`springhill`.`cataloginventory_stock_item`, CONSTRAINT `FK_CATINV_STOCK_ITEM_PRD_ID_CAT_PRD_ENTT_ENTT_ID` FOREIGN KEY (`product_id`) REFERENCES `catalog_product_entity` (`entity_id`) ON DELETE)
					Trace: #0 /var/www/html/springhill/lib/Varien/Db/Statement/Pdo/Mysql.php(110): Zend_Db_Statement_Pdo->_execute(Array)
#1 /var/www/html/springhill/lib/Zend/Db/Statement.php(300): Varien_Db_Statement_Pdo_Mysql->_execute(Array)
#2 /var/www/html/springhill/lib/Zend/Db/Adapter/Abstract.php(479): Zend_Db_Statement->execute(Array)
#3 /var/www/html/springhill/lib/Zend/Db/Adapter/Pdo/Abstract.php(238): Zend_Db_Adapter_Abstract->query('INSERT INTO `ca...', Array)
#4 /var/www/html/springhill/lib/Varien/Db/Adapter/Pdo/Mysql.php(419): Zend_Db_Adapter_Pdo_Abstract->query('INSERT INTO `ca...', Array)
#5 /var/www/html/springhill/lib/Zend/Db/Adapter/Abstract.php(574): Varien_Db_Adapter_Pdo_Mysql->query('INSERT INTO `ca...', Array)
#6 /var/www/html/springhill/app/code/core/Mage/Core/Model/Resource/Db/Abstract.php(453): Zend_Db_Adapter_Abstract->insert('cataloginventor...', Array)
#7 /var/www/html/springhill/app/code/core/Mage/Core/Model/Abstract.php(318): Mage_Core_Model_Resource_Db_Abstract->save(Object(Mage_CatalogInventory_Model_Stock_Item))
#8 /var/www/html/springhill/dailyfeed/InventoryFeedUpdateCron.php(371): Mage_Core_Model_Abstract->save()
#9 /var/www/html/springhill/dailyfeed/InventoryFeedUpdateCron.php(395): inventoryFeedCron(200)
#10 /var/www/html/springhill/dailyfeed/InventoryFeedUpdateCron.php(395): inventoryFeedCron(100)
#11 /var/www/html/springhill/dailyfeed/dailybatch.php(72): inventoryFeedCron(0)
#12 {main}					
					Time: 2013 04 22 08:57:43
					
					- - - - - - - -
					ERROR
                                        SUBJECT: Something went wrong while updating stock data SKU: 13300 and Product Id:5571
					Message: SQLSTATE[23000]: Integrity constraint violation: 1452 Cannot add or update a child row: a foreign key constraint fails (`springhill`.`cataloginventory_stock_item`, CONSTRAINT `FK_CATINV_STOCK_ITEM_PRD_ID_CAT_PRD_ENTT_ENTT_ID` FOREIGN KEY (`product_id`) REFERENCES `catalog_product_entity` (`entity_id`) ON DELETE)
					Trace: #0 /var/www/html/springhill/lib/Varien/Db/Statement/Pdo/Mysql.php(110): Zend_Db_Statement_Pdo->_execute(Array)
#1 /var/www/html/springhill/lib/Zend/Db/Statement.php(300): Varien_Db_Statement_Pdo_Mysql->_execute(Array)
#2 /var/www/html/springhill/lib/Zend/Db/Adapter/Abstract.php(479): Zend_Db_Statement->execute(Array)
#3 /var/www/html/springhill/lib/Zend/Db/Adapter/Pdo/Abstract.php(238): Zend_Db_Adapter_Abstract->query('INSERT INTO `ca...', Array)
#4 /var/www/html/springhill/lib/Varien/Db/Adapter/Pdo/Mysql.php(419): Zend_Db_Adapter_Pdo_Abstract->query('INSERT INTO `ca...', Array)
#5 /var/www/html/springhill/lib/Zend/Db/Adapter/Abstract.php(574): Varien_Db_Adapter_Pdo_Mysql->query('INSERT INTO `ca...', Array)
#6 /var/www/html/springhill/app/code/core/Mage/Core/Model/Resource/Db/Abstract.php(453): Zend_Db_Adapter_Abstract->insert('cataloginventor...', Array)
#7 /var/www/html/springhill/app/code/core/Mage/Core/Model/Abstract.php(318): Mage_Core_Model_Resource_Db_Abstract->save(Object(Mage_CatalogInventory_Model_Stock_Item))
#8 /var/www/html/springhill/dailyfeed/InventoryFeedUpdateCron.php(371): Mage_Core_Model_Abstract->save()
#9 /var/www/html/springhill/dailyfeed/InventoryFeedUpdateCron.php(395): inventoryFeedCron(200)
#10 /var/www/html/springhill/dailyfeed/InventoryFeedUpdateCron.php(395): inventoryFeedCron(100)
#11 /var/www/html/springhill/dailyfeed/dailybatch.php(72): inventoryFeedCron(0)
#12 {main}					
					Time: 2013 04 22 08:57:43
					
					- - - - - - - -
					ERROR
                                        SUBJECT: Something went wrong while updating stock data SKU: 50708 and Product Id:7222
					Message: SQLSTATE[23000]: Integrity constraint violation: 1452 Cannot add or update a child row: a foreign key constraint fails (`springhill`.`cataloginventory_stock_item`, CONSTRAINT `FK_CATINV_STOCK_ITEM_PRD_ID_CAT_PRD_ENTT_ENTT_ID` FOREIGN KEY (`product_id`) REFERENCES `catalog_product_entity` (`entity_id`) ON DELETE)
					Trace: #0 /var/www/html/springhill/lib/Varien/Db/Statement/Pdo/Mysql.php(110): Zend_Db_Statement_Pdo->_execute(Array)
#1 /var/www/html/springhill/lib/Zend/Db/Statement.php(300): Varien_Db_Statement_Pdo_Mysql->_execute(Array)
#2 /var/www/html/springhill/lib/Zend/Db/Adapter/Abstract.php(479): Zend_Db_Statement->execute(Array)
#3 /var/www/html/springhill/lib/Zend/Db/Adapter/Pdo/Abstract.php(238): Zend_Db_Adapter_Abstract->query('INSERT INTO `ca...', Array)
#4 /var/www/html/springhill/lib/Varien/Db/Adapter/Pdo/Mysql.php(419): Zend_Db_Adapter_Pdo_Abstract->query('INSERT INTO `ca...', Array)
#5 /var/www/html/springhill/lib/Zend/Db/Adapter/Abstract.php(574): Varien_Db_Adapter_Pdo_Mysql->query('INSERT INTO `ca...', Array)
#6 /var/www/html/springhill/app/code/core/Mage/Core/Model/Resource/Db/Abstract.php(453): Zend_Db_Adapter_Abstract->insert('cataloginventor...', Array)
#7 /var/www/html/springhill/app/code/core/Mage/Core/Model/Abstract.php(318): Mage_Core_Model_Resource_Db_Abstract->save(Object(Mage_CatalogInventory_Model_Stock_Item))
#8 /var/www/html/springhill/dailyfeed/InventoryFeedUpdateCron.php(371): Mage_Core_Model_Abstract->save()
#9 /var/www/html/springhill/dailyfeed/InventoryFeedUpdateCron.php(395): inventoryFeedCron(200)
#10 /var/www/html/springhill/dailyfeed/InventoryFeedUpdateCron.php(395): inventoryFeedCron(100)
#11 /var/www/html/springhill/dailyfeed/dailybatch.php(72): inventoryFeedCron(0)
#12 {main}					
					Time: 2013 04 22 08:57:43
					
					- - - - - - - -
					ERROR
                                        SUBJECT: Something went wrong while updating stock data SKU: 52183 and Product Id:5696
					Message: SQLSTATE[23000]: Integrity constraint violation: 1452 Cannot add or update a child row: a foreign key constraint fails (`springhill`.`cataloginventory_stock_item`, CONSTRAINT `FK_CATINV_STOCK_ITEM_PRD_ID_CAT_PRD_ENTT_ENTT_ID` FOREIGN KEY (`product_id`) REFERENCES `catalog_product_entity` (`entity_id`) ON DELETE)
					Trace: #0 /var/www/html/springhill/lib/Varien/Db/Statement/Pdo/Mysql.php(110): Zend_Db_Statement_Pdo->_execute(Array)
#1 /var/www/html/springhill/lib/Zend/Db/Statement.php(300): Varien_Db_Statement_Pdo_Mysql->_execute(Array)
#2 /var/www/html/springhill/lib/Zend/Db/Adapter/Abstract.php(479): Zend_Db_Statement->execute(Array)
#3 /var/www/html/springhill/lib/Zend/Db/Adapter/Pdo/Abstract.php(238): Zend_Db_Adapter_Abstract->query('INSERT INTO `ca...', Array)
#4 /var/www/html/springhill/lib/Varien/Db/Adapter/Pdo/Mysql.php(419): Zend_Db_Adapter_Pdo_Abstract->query('INSERT INTO `ca...', Array)
#5 /var/www/html/springhill/lib/Zend/Db/Adapter/Abstract.php(574): Varien_Db_Adapter_Pdo_Mysql->query('INSERT INTO `ca...', Array)
#6 /var/www/html/springhill/app/code/core/Mage/Core/Model/Resource/Db/Abstract.php(453): Zend_Db_Adapter_Abstract->insert('cataloginventor...', Array)
#7 /var/www/html/springhill/app/code/core/Mage/Core/Model/Abstract.php(318): Mage_Core_Model_Resource_Db_Abstract->save(Object(Mage_CatalogInventory_Model_Stock_Item))
#8 /var/www/html/springhill/dailyfeed/InventoryFeedUpdateCron.php(371): Mage_Core_Model_Abstract->save()
#9 /var/www/html/springhill/dailyfeed/InventoryFeedUpdateCron.php(395): inventoryFeedCron(200)
#10 /var/www/html/springhill/dailyfeed/InventoryFeedUpdateCron.php(395): inventoryFeedCron(100)
#11 /var/www/html/springhill/dailyfeed/dailybatch.php(72): inventoryFeedCron(0)
#12 {main}					
					Time: 2013 04 22 08:57:43
					
					- - - - - - - -
					ERROR
                                        SUBJECT: Something went wrong while updating stock data SKU: 64976 and Product Id:5283
					Message: SQLSTATE[23000]: Integrity constraint violation: 1452 Cannot add or update a child row: a foreign key constraint fails (`springhill`.`cataloginventory_stock_item`, CONSTRAINT `FK_CATINV_STOCK_ITEM_PRD_ID_CAT_PRD_ENTT_ENTT_ID` FOREIGN KEY (`product_id`) REFERENCES `catalog_product_entity` (`entity_id`) ON DELETE)
					Trace: #0 /var/www/html/springhill/lib/Varien/Db/Statement/Pdo/Mysql.php(110): Zend_Db_Statement_Pdo->_execute(Array)
#1 /var/www/html/springhill/lib/Zend/Db/Statement.php(300): Varien_Db_Statement_Pdo_Mysql->_execute(Array)
#2 /var/www/html/springhill/lib/Zend/Db/Adapter/Abstract.php(479): Zend_Db_Statement->execute(Array)
#3 /var/www/html/springhill/lib/Zend/Db/Adapter/Pdo/Abstract.php(238): Zend_Db_Adapter_Abstract->query('INSERT INTO `ca...', Array)
#4 /var/www/html/springhill/lib/Varien/Db/Adapter/Pdo/Mysql.php(419): Zend_Db_Adapter_Pdo_Abstract->query('INSERT INTO `ca...', Array)
#5 /var/www/html/springhill/lib/Zend/Db/Adapter/Abstract.php(574): Varien_Db_Adapter_Pdo_Mysql->query('INSERT INTO `ca...', Array)
#6 /var/www/html/springhill/app/code/core/Mage/Core/Model/Resource/Db/Abstract.php(453): Zend_Db_Adapter_Abstract->insert('cataloginventor...', Array)
#7 /var/www/html/springhill/app/code/core/Mage/Core/Model/Abstract.php(318): Mage_Core_Model_Resource_Db_Abstract->save(Object(Mage_CatalogInventory_Model_Stock_Item))
#8 /var/www/html/springhill/dailyfeed/InventoryFeedUpdateCron.php(371): Mage_Core_Model_Abstract->save()
#9 /var/www/html/springhill/dailyfeed/InventoryFeedUpdateCron.php(395): inventoryFeedCron(200)
#10 /var/www/html/springhill/dailyfeed/InventoryFeedUpdateCron.php(395): inventoryFeedCron(100)
#11 /var/www/html/springhill/dailyfeed/dailybatch.php(72): inventoryFeedCron(0)
#12 {main}					
					Time: 2013 04 22 08:57:43
					
					- - - - - - - -
					ERROR
                                        SUBJECT: Something went wrong while updating stock data SKU: 64978 and Product Id:5285
					Message: SQLSTATE[23000]: Integrity constraint violation: 1452 Cannot add or update a child row: a foreign key constraint fails (`springhill`.`cataloginventory_stock_item`, CONSTRAINT `FK_CATINV_STOCK_ITEM_PRD_ID_CAT_PRD_ENTT_ENTT_ID` FOREIGN KEY (`product_id`) REFERENCES `catalog_product_entity` (`entity_id`) ON DELETE)
					Trace: #0 /var/www/html/springhill/lib/Varien/Db/Statement/Pdo/Mysql.php(110): Zend_Db_Statement_Pdo->_execute(Array)
#1 /var/www/html/springhill/lib/Zend/Db/Statement.php(300): Varien_Db_Statement_Pdo_Mysql->_execute(Array)
#2 /var/www/html/springhill/lib/Zend/Db/Adapter/Abstract.php(479): Zend_Db_Statement->execute(Array)
#3 /var/www/html/springhill/lib/Zend/Db/Adapter/Pdo/Abstract.php(238): Zend_Db_Adapter_Abstract->query('INSERT INTO `ca...', Array)
#4 /var/www/html/springhill/lib/Varien/Db/Adapter/Pdo/Mysql.php(419): Zend_Db_Adapter_Pdo_Abstract->query('INSERT INTO `ca...', Array)
#5 /var/www/html/springhill/lib/Zend/Db/Adapter/Abstract.php(574): Varien_Db_Adapter_Pdo_Mysql->query('INSERT INTO `ca...', Array)
#6 /var/www/html/springhill/app/code/core/Mage/Core/Model/Resource/Db/Abstract.php(453): Zend_Db_Adapter_Abstract->insert('cataloginventor...', Array)
#7 /var/www/html/springhill/app/code/core/Mage/Core/Model/Abstract.php(318): Mage_Core_Model_Resource_Db_Abstract->save(Object(Mage_CatalogInventory_Model_Stock_Item))
#8 /var/www/html/springhill/dailyfeed/InventoryFeedUpdateCron.php(371): Mage_Core_Model_Abstract->save()
#9 /var/www/html/springhill/dailyfeed/InventoryFeedUpdateCron.php(395): inventoryFeedCron(200)
#10 /var/www/html/springhill/dailyfeed/InventoryFeedUpdateCron.php(395): inventoryFeedCron(100)
#11 /var/www/html/springhill/dailyfeed/dailybatch.php(72): inventoryFeedCron(0)
#12 {main}					
					Time: 2013 04 22 08:57:43
					
					- - - - - - - -
					ERROR
                                        SUBJECT: Something went wrong while updating stock data SKU: 64979 and Product Id:5558
					Message: SQLSTATE[23000]: Integrity constraint violation: 1452 Cannot add or update a child row: a foreign key constraint fails (`springhill`.`cataloginventory_stock_item`, CONSTRAINT `FK_CATINV_STOCK_ITEM_PRD_ID_CAT_PRD_ENTT_ENTT_ID` FOREIGN KEY (`product_id`) REFERENCES `catalog_product_entity` (`entity_id`) ON DELETE)
					Trace: #0 /var/www/html/springhill/lib/Varien/Db/Statement/Pdo/Mysql.php(110): Zend_Db_Statement_Pdo->_execute(Array)
#1 /var/www/html/springhill/lib/Zend/Db/Statement.php(300): Varien_Db_Statement_Pdo_Mysql->_execute(Array)
#2 /var/www/html/springhill/lib/Zend/Db/Adapter/Abstract.php(479): Zend_Db_Statement->execute(Array)
#3 /var/www/html/springhill/lib/Zend/Db/Adapter/Pdo/Abstract.php(238): Zend_Db_Adapter_Abstract->query('INSERT INTO `ca...', Array)
#4 /var/www/html/springhill/lib/Varien/Db/Adapter/Pdo/Mysql.php(419): Zend_Db_Adapter_Pdo_Abstract->query('INSERT INTO `ca...', Array)
#5 /var/www/html/springhill/lib/Zend/Db/Adapter/Abstract.php(574): Varien_Db_Adapter_Pdo_Mysql->query('INSERT INTO `ca...', Array)
#6 /var/www/html/springhill/app/code/core/Mage/Core/Model/Resource/Db/Abstract.php(453): Zend_Db_Adapter_Abstract->insert('cataloginventor...', Array)
#7 /var/www/html/springhill/app/code/core/Mage/Core/Model/Abstract.php(318): Mage_Core_Model_Resource_Db_Abstract->save(Object(Mage_CatalogInventory_Model_Stock_Item))
#8 /var/www/html/springhill/dailyfeed/InventoryFeedUpdateCron.php(371): Mage_Core_Model_Abstract->save()
#9 /var/www/html/springhill/dailyfeed/InventoryFeedUpdateCron.php(395): inventoryFeedCron(200)
#10 /var/www/html/springhill/dailyfeed/InventoryFeedUpdateCron.php(395): inventoryFeedCron(100)
#11 /var/www/html/springhill/dailyfeed/dailybatch.php(72): inventoryFeedCron(0)
#12 {main}					
					Time: 2013 04 22 08:57:43
					
					- - - - - - - -
					ERROR
                                        SUBJECT: Something went wrong while updating stock data SKU: 64983 and Product Id:5330
					Message: SQLSTATE[23000]: Integrity constraint violation: 1452 Cannot add or update a child row: a foreign key constraint fails (`springhill`.`cataloginventory_stock_item`, CONSTRAINT `FK_CATINV_STOCK_ITEM_PRD_ID_CAT_PRD_ENTT_ENTT_ID` FOREIGN KEY (`product_id`) REFERENCES `catalog_product_entity` (`entity_id`) ON DELETE)
					Trace: #0 /var/www/html/springhill/lib/Varien/Db/Statement/Pdo/Mysql.php(110): Zend_Db_Statement_Pdo->_execute(Array)
#1 /var/www/html/springhill/lib/Zend/Db/Statement.php(300): Varien_Db_Statement_Pdo_Mysql->_execute(Array)
#2 /var/www/html/springhill/lib/Zend/Db/Adapter/Abstract.php(479): Zend_Db_Statement->execute(Array)
#3 /var/www/html/springhill/lib/Zend/Db/Adapter/Pdo/Abstract.php(238): Zend_Db_Adapter_Abstract->query('INSERT INTO `ca...', Array)
#4 /var/www/html/springhill/lib/Varien/Db/Adapter/Pdo/Mysql.php(419): Zend_Db_Adapter_Pdo_Abstract->query('INSERT INTO `ca...', Array)
#5 /var/www/html/springhill/lib/Zend/Db/Adapter/Abstract.php(574): Varien_Db_Adapter_Pdo_Mysql->query('INSERT INTO `ca...', Array)
#6 /var/www/html/springhill/app/code/core/Mage/Core/Model/Resource/Db/Abstract.php(453): Zend_Db_Adapter_Abstract->insert('cataloginventor...', Array)
#7 /var/www/html/springhill/app/code/core/Mage/Core/Model/Abstract.php(318): Mage_Core_Model_Resource_Db_Abstract->save(Object(Mage_CatalogInventory_Model_Stock_Item))
#8 /var/www/html/springhill/dailyfeed/InventoryFeedUpdateCron.php(371): Mage_Core_Model_Abstract->save()
#9 /var/www/html/springhill/dailyfeed/InventoryFeedUpdateCron.php(395): inventoryFeedCron(200)
#10 /var/www/html/springhill/dailyfeed/InventoryFeedUpdateCron.php(395): inventoryFeedCron(100)
#11 /var/www/html/springhill/dailyfeed/dailybatch.php(72): inventoryFeedCron(0)
#12 {main}					
					Time: 2013 04 22 08:57:43
					
					- - - - - - - -
					ERROR
                                        SUBJECT: Something went wrong while updating stock data SKU: 64984 and Product Id:5331
					Message: SQLSTATE[23000]: Integrity constraint violation: 1452 Cannot add or update a child row: a foreign key constraint fails (`springhill`.`cataloginventory_stock_item`, CONSTRAINT `FK_CATINV_STOCK_ITEM_PRD_ID_CAT_PRD_ENTT_ENTT_ID` FOREIGN KEY (`product_id`) REFERENCES `catalog_product_entity` (`entity_id`) ON DELETE)
					Trace: #0 /var/www/html/springhill/lib/Varien/Db/Statement/Pdo/Mysql.php(110): Zend_Db_Statement_Pdo->_execute(Array)
#1 /var/www/html/springhill/lib/Zend/Db/Statement.php(300): Varien_Db_Statement_Pdo_Mysql->_execute(Array)
#2 /var/www/html/springhill/lib/Zend/Db/Adapter/Abstract.php(479): Zend_Db_Statement->execute(Array)
#3 /var/www/html/springhill/lib/Zend/Db/Adapter/Pdo/Abstract.php(238): Zend_Db_Adapter_Abstract->query('INSERT INTO `ca...', Array)
#4 /var/www/html/springhill/lib/Varien/Db/Adapter/Pdo/Mysql.php(419): Zend_Db_Adapter_Pdo_Abstract->query('INSERT INTO `ca...', Array)
#5 /var/www/html/springhill/lib/Zend/Db/Adapter/Abstract.php(574): Varien_Db_Adapter_Pdo_Mysql->query('INSERT INTO `ca...', Array)
#6 /var/www/html/springhill/app/code/core/Mage/Core/Model/Resource/Db/Abstract.php(453): Zend_Db_Adapter_Abstract->insert('cataloginventor...', Array)
#7 /var/www/html/springhill/app/code/core/Mage/Core/Model/Abstract.php(318): Mage_Core_Model_Resource_Db_Abstract->save(Object(Mage_CatalogInventory_Model_Stock_Item))
#8 /var/www/html/springhill/dailyfeed/InventoryFeedUpdateCron.php(371): Mage_Core_Model_Abstract->save()
#9 /var/www/html/springhill/dailyfeed/InventoryFeedUpdateCron.php(395): inventoryFeedCron(200)
#10 /var/www/html/springhill/dailyfeed/InventoryFeedUpdateCron.php(395): inventoryFeedCron(100)
#11 /var/www/html/springhill/dailyfeed/dailybatch.php(72): inventoryFeedCron(0)
#12 {main}					
					Time: 2013 04 22 08:57:43
					
					- - - - - - - -
					ERROR
                                        SUBJECT: Something went wrong while updating stock data SKU: 65358 and Product Id:8353
					Message: SQLSTATE[23000]: Integrity constraint violation: 1452 Cannot add or update a child row: a foreign key constraint fails (`springhill`.`cataloginventory_stock_item`, CONSTRAINT `FK_CATINV_STOCK_ITEM_PRD_ID_CAT_PRD_ENTT_ENTT_ID` FOREIGN KEY (`product_id`) REFERENCES `catalog_product_entity` (`entity_id`) ON DELETE)
					Trace: #0 /var/www/html/springhill/lib/Varien/Db/Statement/Pdo/Mysql.php(110): Zend_Db_Statement_Pdo->_execute(Array)
#1 /var/www/html/springhill/lib/Zend/Db/Statement.php(300): Varien_Db_Statement_Pdo_Mysql->_execute(Array)
#2 /var/www/html/springhill/lib/Zend/Db/Adapter/Abstract.php(479): Zend_Db_Statement->execute(Array)
#3 /var/www/html/springhill/lib/Zend/Db/Adapter/Pdo/Abstract.php(238): Zend_Db_Adapter_Abstract->query('INSERT INTO `ca...', Array)
#4 /var/www/html/springhill/lib/Varien/Db/Adapter/Pdo/Mysql.php(419): Zend_Db_Adapter_Pdo_Abstract->query('INSERT INTO `ca...', Array)
#5 /var/www/html/springhill/lib/Zend/Db/Adapter/Abstract.php(574): Varien_Db_Adapter_Pdo_Mysql->query('INSERT INTO `ca...', Array)
#6 /var/www/html/springhill/app/code/core/Mage/Core/Model/Resource/Db/Abstract.php(453): Zend_Db_Adapter_Abstract->insert('cataloginventor...', Array)
#7 /var/www/html/springhill/app/code/core/Mage/Core/Model/Abstract.php(318): Mage_Core_Model_Resource_Db_Abstract->save(Object(Mage_CatalogInventory_Model_Stock_Item))
#8 /var/www/html/springhill/dailyfeed/InventoryFeedUpdateCron.php(371): Mage_Core_Model_Abstract->save()
#9 /var/www/html/springhill/dailyfeed/InventoryFeedUpdateCron.php(395): inventoryFeedCron(200)
#10 /var/www/html/springhill/dailyfeed/InventoryFeedUpdateCron.php(395): inventoryFeedCron(100)
#11 /var/www/html/springhill/dailyfeed/dailybatch.php(72): inventoryFeedCron(0)
#12 {main}					
					Time: 2013 04 22 08:57:43
					
					- - - - - - - -
					ERROR
                                        SUBJECT: Something went wrong while updating stock data SKU: 65734 and Product Id:6467
					Message: SQLSTATE[23000]: Integrity constraint violation: 1452 Cannot add or update a child row: a foreign key constraint fails (`springhill`.`cataloginventory_stock_item`, CONSTRAINT `FK_CATINV_STOCK_ITEM_PRD_ID_CAT_PRD_ENTT_ENTT_ID` FOREIGN KEY (`product_id`) REFERENCES `catalog_product_entity` (`entity_id`) ON DELETE)
					Trace: #0 /var/www/html/springhill/lib/Varien/Db/Statement/Pdo/Mysql.php(110): Zend_Db_Statement_Pdo->_execute(Array)
#1 /var/www/html/springhill/lib/Zend/Db/Statement.php(300): Varien_Db_Statement_Pdo_Mysql->_execute(Array)
#2 /var/www/html/springhill/lib/Zend/Db/Adapter/Abstract.php(479): Zend_Db_Statement->execute(Array)
#3 /var/www/html/springhill/lib/Zend/Db/Adapter/Pdo/Abstract.php(238): Zend_Db_Adapter_Abstract->query('INSERT INTO `ca...', Array)
#4 /var/www/html/springhill/lib/Varien/Db/Adapter/Pdo/Mysql.php(419): Zend_Db_Adapter_Pdo_Abstract->query('INSERT INTO `ca...', Array)
#5 /var/www/html/springhill/lib/Zend/Db/Adapter/Abstract.php(574): Varien_Db_Adapter_Pdo_Mysql->query('INSERT INTO `ca...', Array)
#6 /var/www/html/springhill/app/code/core/Mage/Core/Model/Resource/Db/Abstract.php(453): Zend_Db_Adapter_Abstract->insert('cataloginventor...', Array)
#7 /var/www/html/springhill/app/code/core/Mage/Core/Model/Abstract.php(318): Mage_Core_Model_Resource_Db_Abstract->save(Object(Mage_CatalogInventory_Model_Stock_Item))
#8 /var/www/html/springhill/dailyfeed/InventoryFeedUpdateCron.php(371): Mage_Core_Model_Abstract->save()
#9 /var/www/html/springhill/dailyfeed/InventoryFeedUpdateCron.php(395): inventoryFeedCron(200)
#10 /var/www/html/springhill/dailyfeed/InventoryFeedUpdateCron.php(395): inventoryFeedCron(100)
#11 /var/www/html/springhill/dailyfeed/dailybatch.php(72): inventoryFeedCron(0)
#12 {main}					
					Time: 2013 04 22 08:57:43
					