
          - - - - - - - -
          ERROR
          SUBJECT: 
          Message: SQLSTATE[42000]: Syntax error or access violation: 1064 You have an error in your SQL syntax; check the manual that corresponds to your MySQL server version for the right syntax to use near ')' at line 1
          Trace: 
          ProductId: 
          Time: 2013 02 21 10:06:57
          
          - - - - - - - -
          ERROR
          SUBJECT: 
          Message: 
          Trace: #0 /var/www/html/springhill/lib/Varien/Db/Statement/Pdo/Mysql.php(110): Zend_Db_Statement_Pdo->_execute(Array)
#1 /var/www/html/springhill/lib/Zend/Db/Statement.php(300): Varien_Db_Statement_Pdo_Mysql->_execute(Array)
#2 /var/www/html/springhill/lib/Zend/Db/Adapter/Abstract.php(479): Zend_Db_Statement->execute(Array)
#3 /var/www/html/springhill/lib/Zend/Db/Adapter/Pdo/Abstract.php(238): Zend_Db_Adapter_Abstract->query('SELECT * FROM c...', Array)
#4 /var/www/html/springhill/lib/Varien/Db/Adapter/Pdo/Mysql.php(419): Zend_Db_Adapter_Pdo_Abstract->query('SELECT * FROM c...', Array)
#5 /var/www/html/springhill/lib/Zend/Db/Adapter/Abstract.php(734): Varien_Db_Adapter_Pdo_Mysql->query('SELECT * FROM c...', Array)
#6 /var/www/html/springhill/dailyfeed/couponOfferCron.php(285): Zend_Db_Adapter_Abstract->fetchAll('SELECT * FROM c...')
#7 /var/www/html/springhill/dailyfeed/dailybatch.php(74): couponOfferCron(0)
#8 {main}
          ProductId: 
          Time: 2013 02 21 10:06:57
          
          - - - - - - - -
          ERROR
          SUBJECT:   not exists.
          Message: 
          Trace: 
          ProductId: 
          Time: 2013 02 21 10:06:57
          