
					- - - - - - - -
					ERROR
                                        SUBJECT: Something went wrong while updating stock data SKU: 74371 and Product Id:8346
					Message: SQLSTATE[23000]: Integrity constraint violation: 1452 Cannot add or update a child row: a foreign key constraint fails (`springhill`.`cataloginventory_stock_item`, CONSTRAINT `FK_CATINV_STOCK_ITEM_PRD_ID_CAT_PRD_ENTT_ENTT_ID` FOREIGN KEY (`product_id`) REFERENCES `catalog_product_entity` (`entity_id`) ON DELETE)
					Trace: #0 /var/www/html/springhill/lib/Varien/Db/Statement/Pdo/Mysql.php(110): Zend_Db_Statement_Pdo->_execute(Array)
#1 /var/www/html/springhill/lib/Zend/Db/Statement.php(300): Varien_Db_Statement_Pdo_Mysql->_execute(Array)
#2 /var/www/html/springhill/lib/Zend/Db/Adapter/Abstract.php(479): Zend_Db_Statement->execute(Array)
#3 /var/www/html/springhill/lib/Zend/Db/Adapter/Pdo/Abstract.php(238): Zend_Db_Adapter_Abstract->query('INSERT INTO `ca...', Array)
#4 /var/www/html/springhill/lib/Varien/Db/Adapter/Pdo/Mysql.php(419): Zend_Db_Adapter_Pdo_Abstract->query('INSERT INTO `ca...', Array)
#5 /var/www/html/springhill/lib/Zend/Db/Adapter/Abstract.php(574): Varien_Db_Adapter_Pdo_Mysql->query('INSERT INTO `ca...', Array)
#6 /var/www/html/springhill/app/code/core/Mage/Core/Model/Resource/Db/Abstract.php(453): Zend_Db_Adapter_Abstract->insert('cataloginventor...', Array)
#7 /var/www/html/springhill/app/code/core/Mage/Core/Model/Abstract.php(318): Mage_Core_Model_Resource_Db_Abstract->save(Object(Mage_CatalogInventory_Model_Stock_Item))
#8 /var/www/html/springhill/dailyfeed/InventoryFeedUpdateCron.php(371): Mage_Core_Model_Abstract->save()
#9 /var/www/html/springhill/dailyfeed/InventoryFeedUpdateCron.php(395): inventoryFeedCron(300)
#10 /var/www/html/springhill/dailyfeed/InventoryFeedUpdateCron.php(395): inventoryFeedCron(200)
#11 /var/www/html/springhill/dailyfeed/InventoryFeedUpdateCron.php(395): inventoryFeedCron(100)
#12 /var/www/html/springhill/dailyfeed/dailybatch.php(72): inventoryFeedCron(0)
#13 {main}					
					Time: 2013 03 14 09:52:28
					
					- - - - - - - -
					ERROR
                                        SUBJECT: Something went wrong while updating stock data SKU: 74516 and Product Id:5454
					Message: SQLSTATE[23000]: Integrity constraint violation: 1452 Cannot add or update a child row: a foreign key constraint fails (`springhill`.`cataloginventory_stock_item`, CONSTRAINT `FK_CATINV_STOCK_ITEM_PRD_ID_CAT_PRD_ENTT_ENTT_ID` FOREIGN KEY (`product_id`) REFERENCES `catalog_product_entity` (`entity_id`) ON DELETE)
					Trace: #0 /var/www/html/springhill/lib/Varien/Db/Statement/Pdo/Mysql.php(110): Zend_Db_Statement_Pdo->_execute(Array)
#1 /var/www/html/springhill/lib/Zend/Db/Statement.php(300): Varien_Db_Statement_Pdo_Mysql->_execute(Array)
#2 /var/www/html/springhill/lib/Zend/Db/Adapter/Abstract.php(479): Zend_Db_Statement->execute(Array)
#3 /var/www/html/springhill/lib/Zend/Db/Adapter/Pdo/Abstract.php(238): Zend_Db_Adapter_Abstract->query('INSERT INTO `ca...', Array)
#4 /var/www/html/springhill/lib/Varien/Db/Adapter/Pdo/Mysql.php(419): Zend_Db_Adapter_Pdo_Abstract->query('INSERT INTO `ca...', Array)
#5 /var/www/html/springhill/lib/Zend/Db/Adapter/Abstract.php(574): Varien_Db_Adapter_Pdo_Mysql->query('INSERT INTO `ca...', Array)
#6 /var/www/html/springhill/app/code/core/Mage/Core/Model/Resource/Db/Abstract.php(453): Zend_Db_Adapter_Abstract->insert('cataloginventor...', Array)
#7 /var/www/html/springhill/app/code/core/Mage/Core/Model/Abstract.php(318): Mage_Core_Model_Resource_Db_Abstract->save(Object(Mage_CatalogInventory_Model_Stock_Item))
#8 /var/www/html/springhill/dailyfeed/InventoryFeedUpdateCron.php(371): Mage_Core_Model_Abstract->save()
#9 /var/www/html/springhill/dailyfeed/InventoryFeedUpdateCron.php(395): inventoryFeedCron(300)
#10 /var/www/html/springhill/dailyfeed/InventoryFeedUpdateCron.php(395): inventoryFeedCron(200)
#11 /var/www/html/springhill/dailyfeed/InventoryFeedUpdateCron.php(395): inventoryFeedCron(100)
#12 /var/www/html/springhill/dailyfeed/dailybatch.php(72): inventoryFeedCron(0)
#13 {main}					
					Time: 2013 03 14 09:52:28
					
					- - - - - - - -
					ERROR
                                        SUBJECT: Something went wrong while updating Product data SKU: 75858 and Product Id:6724
					Message: SQLSTATE[23000]: Integrity constraint violation: 1062 Duplicate entry '6724-1-0-2.0000-0' for key 'E8AB433B9ACB00343ABB312AD2FAB087'
					Trace: #0 /var/www/html/springhill/app/Mage.php(462): Mage_Core_Model_Config->getModelInstance('eav/entity_attr...', 'SQLSTATE[23000]...')
#1 /var/www/html/springhill/app/code/core/Mage/Eav/Model/Entity/Abstract.php(661): Mage::getModel('eav/entity_attr...', 'SQLSTATE[23000]...')
#2 /var/www/html/springhill/app/code/core/Mage/Eav/Model/Entity/Abstract.php(1648): Mage_Eav_Model_Entity_Abstract->walkAttributes('backend/afterSa...', Array)
#3 /var/www/html/springhill/app/code/core/Mage/Catalog/Model/Resource/Product.php(195): Mage_Eav_Model_Entity_Abstract->_afterSave(Object(Mage_Catalog_Model_Product))
#4 /var/www/html/springhill/app/code/core/Mage/Eav/Model/Entity/Abstract.php(1124): Mage_Catalog_Model_Resource_Product->_afterSave(Object(Mage_Catalog_Model_Product))
#5 /var/www/html/springhill/app/code/core/Mage/Core/Model/Abstract.php(318): Mage_Eav_Model_Entity_Abstract->save(Object(Mage_Catalog_Model_Product))
#6 /var/www/html/springhill/dailyfeed/InventoryFeedUpdateCron.php(253): Mage_Core_Model_Abstract->save()
#7 /var/www/html/springhill/dailyfeed/InventoryFeedUpdateCron.php(395): inventoryFeedCron(300)
#8 /var/www/html/springhill/dailyfeed/InventoryFeedUpdateCron.php(395): inventoryFeedCron(200)
#9 /var/www/html/springhill/dailyfeed/InventoryFeedUpdateCron.php(395): inventoryFeedCron(100)
#10 /var/www/html/springhill/dailyfeed/dailybatch.php(72): inventoryFeedCron(0)
#11 {main}					
					Time: 2013 03 14 09:52:28
					
					- - - - - - - -
					ERROR
                                        SUBJECT: Something went wrong while updating stock data SKU: 76387 and Product Id:6236
					Message: SQLSTATE[23000]: Integrity constraint violation: 1452 Cannot add or update a child row: a foreign key constraint fails (`springhill`.`cataloginventory_stock_item`, CONSTRAINT `FK_CATINV_STOCK_ITEM_PRD_ID_CAT_PRD_ENTT_ENTT_ID` FOREIGN KEY (`product_id`) REFERENCES `catalog_product_entity` (`entity_id`) ON DELETE)
					Trace: #0 /var/www/html/springhill/lib/Varien/Db/Statement/Pdo/Mysql.php(110): Zend_Db_Statement_Pdo->_execute(Array)
#1 /var/www/html/springhill/lib/Zend/Db/Statement.php(300): Varien_Db_Statement_Pdo_Mysql->_execute(Array)
#2 /var/www/html/springhill/lib/Zend/Db/Adapter/Abstract.php(479): Zend_Db_Statement->execute(Array)
#3 /var/www/html/springhill/lib/Zend/Db/Adapter/Pdo/Abstract.php(238): Zend_Db_Adapter_Abstract->query('INSERT INTO `ca...', Array)
#4 /var/www/html/springhill/lib/Varien/Db/Adapter/Pdo/Mysql.php(419): Zend_Db_Adapter_Pdo_Abstract->query('INSERT INTO `ca...', Array)
#5 /var/www/html/springhill/lib/Zend/Db/Adapter/Abstract.php(574): Varien_Db_Adapter_Pdo_Mysql->query('INSERT INTO `ca...', Array)
#6 /var/www/html/springhill/app/code/core/Mage/Core/Model/Resource/Db/Abstract.php(453): Zend_Db_Adapter_Abstract->insert('cataloginventor...', Array)
#7 /var/www/html/springhill/app/code/core/Mage/Core/Model/Abstract.php(318): Mage_Core_Model_Resource_Db_Abstract->save(Object(Mage_CatalogInventory_Model_Stock_Item))
#8 /var/www/html/springhill/dailyfeed/InventoryFeedUpdateCron.php(371): Mage_Core_Model_Abstract->save()
#9 /var/www/html/springhill/dailyfeed/InventoryFeedUpdateCron.php(395): inventoryFeedCron(300)
#10 /var/www/html/springhill/dailyfeed/InventoryFeedUpdateCron.php(395): inventoryFeedCron(200)
#11 /var/www/html/springhill/dailyfeed/InventoryFeedUpdateCron.php(395): inventoryFeedCron(100)
#12 /var/www/html/springhill/dailyfeed/dailybatch.php(72): inventoryFeedCron(0)
#13 {main}					
					Time: 2013 03 14 09:52:28
					